%YAML 1.1
%TAG !u! tag:unity3d.com,2011:
--- !u!1 &7588138178245464205
GameObject:
  m_ObjectHideFlags: 0
  m_CorrespondingSourceObject: {fileID: 0}
  m_PrefabInstance: {fileID: 0}
  m_PrefabAsset: {fileID: 0}
  serializedVersion: 6
  m_Component:
  - component: {fileID: 7588138178245464203}
  - component: {fileID: 7588138178245464202}
  m_Layer: 0
  m_Name: ItemProgressionHandler
  m_TagString: Untagged
  m_Icon: {fileID: 0}
  m_NavMeshLayer: 0
  m_StaticEditorFlags: 0
  m_IsActive: 1
--- !u!4 &7588138178245464203
Transform:
  m_ObjectHideFlags: 0
  m_CorrespondingSourceObject: {fileID: 0}
  m_PrefabInstance: {fileID: 0}
  m_PrefabAsset: {fileID: 0}
  m_GameObject: {fileID: 7588138178245464205}
  m_LocalRotation: {x: 0, y: 0, z: 0, w: 1}
  m_LocalPosition: {x: -1.1135728, y: 0.44383138, z: -6.039814}
  m_LocalScale: {x: 1, y: 1, z: 1}
  m_Children: []
  m_Father: {fileID: 0}
  m_RootOrder: 0
  m_LocalEulerAnglesHint: {x: 0, y: 0, z: 0}
--- !u!114 &7588138178245464202
MonoBehaviour:
  m_ObjectHideFlags: 0
  m_CorrespondingSourceObject: {fileID: 0}
  m_PrefabInstance: {fileID: 0}
  m_PrefabAsset: {fileID: 0}
  m_GameObject: {fileID: 7588138178245464205}
  m_Enabled: 1
  m_EditorHideFlags: 0
  m_Script: {fileID: 11500000, guid: 582b2196fb523f64e846a6fdeb2dc767, type: 3}
  m_Name: 
  m_EditorClassIdentifier: 
  m_phaseObjects:
  - m_phaseStep: 1
    m_phaseGameObjects:
    - {fileID: 0}
    - {fileID: 0}
    m_phaseObjectScripts: []
  - m_phaseStep: 2
    m_phaseGameObjects:
    - {fileID: 0}
    m_phaseObjectScripts: []
  - m_phaseStep: 3
    m_phaseGameObjects:
    - {fileID: 0}
    - {fileID: 0}
    m_phaseObjectScripts: []
  - m_phaseStep: 4
    m_phaseGameObjects:
    - {fileID: 0}
    m_phaseObjectScripts: []
  - m_phaseStep: 5
    m_phaseGameObjects:
    - {fileID: 0}
    m_phaseObjectScripts: []
  - m_phaseStep: 4
    m_phaseGameObjects: []
    m_phaseObjectScripts: []
  - m_phaseStep: 5
    m_phaseGameObjects: []
    m_phaseObjectScripts: []
  m_setAsExamineTag: 1
  m_debugModeActive: 0
